<?xml version="1.0" standalone="no"?>
<!DOCTYPE svg PUBLIC "-//W3C//DTD SVG 1.1//EN" "http://www.w3.org/Graphics/SVG/1.1/DTD/svg11.dtd" >
<svg xmlns="http://www.w3.org/2000/svg">
<metadata>Generated by IcoMoon</metadata>
<defs>
<font id="icomoon" horiz-adv-x="1024">
<font-face units-per-em="1024" ascent="960" descent="-64" />
<missing-glyph horiz-adv-x="1024" />
<glyph unicode="&#x20;" horiz-adv-x="512" d="" />
<glyph unicode="&#xe900;" glyph-name="arrow-left" d="M394.644 448l388.191 386.067c29 28.812 29 75.52 0 104.328-28.996 28.808-76.014 28.808-105.015 0l-436.913-434.528c-15.454-15.352-22.409-35.771-21.392-55.868-1.017-20.101 5.938-40.517 21.392-55.872l436.913-434.523c29-28.812 76.014-28.812 105.015 0 29 28.808 29 75.516 0 104.32l-388.191 386.076z" />
<glyph unicode="&#xe901;" glyph-name="arrow-right" d="M782.857 397.307l-440.304-440.29c-28.009-28.022-73.42-28.022-101.415 0-27.997 27.997-27.997 73.406 0 101.401l389.601 389.589-389.589 389.576c-27.997 28.009-27.997 73.413 0 101.41 27.997 28.009 73.406 28.009 101.415 0l440.304-440.297c13.999-14.005 20.99-32.342 20.99-50.687 0-18.354-7.005-36.704-21.001-50.703z" />
<glyph unicode="&#xe902;" glyph-name="arrow-up-circle" d="M753.179 348.295c-10.779-10.779-26.947-10.779-37.726 0l-198.063 198.063-208.842-208.842c-10.779-10.779-26.947-10.779-37.726 0s-10.779 26.947 0 37.726l227.705 227.705c10.779 10.779 28.295 10.779 37.726 0l216.926-216.926c10.779-10.779 10.779-26.947 0-37.726zM1024 448c0-282.947-229.053-512-512-512s-512 229.053-512 512 229.053 512 512 512 512-229.053 512-512zM970.105 448c0 253.305-206.147 458.105-458.105 458.105-253.305 0-458.105-204.8-458.105-458.105s204.8-458.105 458.105-458.105c251.958 0 458.105 204.8 458.105 458.105z" />
<glyph unicode="&#xe903;" glyph-name="drop-down-arrow" d="M0 704l512-512 512 512z" />
<glyph unicode="&#xe904;" glyph-name="eye" d="M512 753.2c-195.646 0-373.068-107.040-503.988-280.901-10.683-14.244-10.683-34.144 0-48.388 130.92-174.071 308.342-281.11 503.988-281.11s373.068 107.040 503.988 280.901c10.683 14.244 10.683 34.144 0 48.388-130.92 174.071-308.342 281.11-503.988 281.11zM526.035 233.083c-129.872-8.169-237.121 98.87-228.952 228.952 6.703 107.249 93.634 194.18 200.883 200.883 129.872 8.169 237.121-98.87 228.952-228.952-6.913-107.040-93.843-193.97-200.883-200.883zM519.541 332.372c-69.963-4.399-127.777 53.206-123.169 123.169 3.561 57.814 50.483 104.526 108.297 108.297 69.963 4.399 127.777-53.206 123.169-123.169-3.77-58.024-50.692-104.736-108.297-108.297z" />
<glyph unicode="&#xe905;" glyph-name="heart" d="M941.29 814.55c-53.62 53.62-124.608 82.927-200.371 82.927s-146.968-29.524-200.588-83.144l-28.004-28.004-28.438 28.438c-53.62 53.62-125.042 83.361-200.805 83.361-75.546 0-146.751-29.524-200.154-82.927-53.62-53.62-83.144-124.825-82.927-200.588 0-75.763 29.741-146.751 83.361-200.371l407.689-407.689c5.644-5.644 13.242-8.683 20.623-8.683s14.979 2.822 20.623 8.466l408.557 407.038c53.62 53.62 83.144 124.825 83.144 200.588 0.217 75.763-29.090 146.968-82.71 200.588zM899.609 454.837l-387.934-386.414-387.066 387.066c-42.549 42.549-65.994 98.992-65.994 159.125s23.228 116.576 65.777 158.907c42.332 42.332 98.774 65.777 158.69 65.777 60.133 0 116.793-23.445 159.342-65.994l49.062-49.062c11.506-11.506 29.958-11.506 41.464 0l48.627 48.627c42.549 42.549 99.209 65.994 159.125 65.994s116.358-23.445 158.907-65.777c42.549-42.549 65.777-98.992 65.777-159.125 0.217-60.133-23.228-116.576-65.777-159.125z" />
<glyph unicode="&#xe906;" glyph-name="printer" d="M927.602 637.758v99.445c0 16.563-13.43 30-30 30h-98.539v162.797c0 16.57-13.43 30-30 30h-514.125c-16.57 0-30-13.43-30-30v-162.797h-98.539c-16.57 0-30-13.438-30-30v-99.445c-54.281-6.883-96.398-53.313-96.398-109.43v-401.664c0-16.563 13.43-30 30-30h194.938v-130.664c0-16.57 13.43-30 30-30h514.125c16.57 0 30 13.43 30 30v130.664h194.938c16.57 0 30 13.438 30 30v401.664c0 56.117-42.117 102.547-96.398 109.43zM867.602 707.203v-68.539h-68.539v68.539zM284.938 900h454.125v-261.336h-454.125zM156.398 707.203h68.539v-68.539h-68.539zM739.063-4h-454.125v130.281c0 0.133 0.016 0.258 0.016 0.383 0 0.133-0.016 0.258-0.016 0.391v130.273h454.125zM964 156.664h-164.938v130.664c0 16.57-13.43 30-30 30h-514.125c-16.57 0-30-13.43-30-30v-130.664h-164.938v371.664c0 27.758 22.578 50.336 50.328 50.336h803.344c27.75 0 50.328-22.578 50.328-50.336zM351.328 478h-160.656c-16.57 0-30-13.43-30-30s13.43-30 30-30h160.656c16.57 0 30 13.43 30 30s-13.43 30-30 30zM833.328 526.203c-43.117 0-78.195-35.086-78.195-78.203s35.078-78.203 78.195-78.203c43.125 0 78.203 35.078 78.203 78.203 0 43.117-35.078 78.203-78.203 78.203zM833.328 429.797c-10.031 0-18.195 8.164-18.195 18.203s8.164 18.203 18.195 18.203c10.039 0 18.203-8.164 18.203-18.203s-8.164-18.203-18.203-18.203z" />
<glyph unicode="&#xe907;" glyph-name="ruble" d="M541.142 395.804c148.743 0 269.754 126.562 269.754 282.128 0 155.534-121.011 282.068-269.754 282.068h-260.547v-657.287h-67.491v-69.818h67.491v-296.895h69.818v296.895h237.277v69.818h-237.277v93.091h190.729zM350.413 890.182h190.732c110.245 0 199.936-95.213 199.936-212.25 0-117.069-89.691-212.31-199.936-212.31h-190.732v424.56z" />
<glyph unicode="&#xe908;" glyph-name="user" d="M819.439 228.028l-163.038 81.51c-15.377 7.697-24.934 23.159-24.934 40.363v57.702c3.908 4.779 8.021 10.223 12.271 16.23 21.146 29.867 38.093 63.113 50.415 98.97 24.081 11.042 39.714 34.85 39.714 61.73v68.267c0 16.435-6.144 32.358-17.067 44.8v90.778c0.956 9.387 4.71 65.263-35.703 111.36-35.055 39.987-91.938 60.262-169.097 60.262s-134.042-20.275-169.097-60.245c-40.414-46.097-36.659-101.99-35.703-111.377v-90.778c-10.923-12.442-17.067-28.365-17.067-44.8v-68.267c0-20.77 9.438-40.141 25.549-53.060 15.633-61.901 48.35-108.544 59.785-123.511v-56.474c0-16.521-9.011-31.676-23.501-39.595l-152.252-83.046c-49.51-27.017-80.247-78.797-80.247-135.185v-55.262c0-80.998 256.768-102.4 392.533-102.4s392.533 21.402 392.533 102.4v51.934c0 58.675-32.614 111.445-85.094 137.694zM870.4 38.4c0-23.159-126.498-68.267-358.4-68.267s-358.4 45.107-358.4 68.267v55.262c0 43.878 23.927 84.207 62.447 105.199l152.252 83.046c25.481 13.909 41.301 40.585 41.301 69.581v68.591l-3.977 4.745c-0.41 0.495-42.24 51.098-58.197 120.576l-1.553 6.758-5.82 3.755c-9.882 6.383-15.787 17.084-15.787 28.621v68.267c0 9.574 4.062 18.5 11.435 25.173l5.632 5.069v106.291l-0.154 2.236c-0.051 0.461-5.854 47.77 27.392 85.692 28.279 32.256 76.544 48.606 143.428 48.606 66.645 0 114.807-16.23 143.121-48.265 33.229-37.564 27.733-85.623 27.699-86.033l-0.154-108.527 5.632-5.086c7.373-6.656 11.435-15.582 11.435-25.156v-68.267c0-14.899-9.762-27.938-24.269-32.41l-8.499-2.611-2.731-8.448c-11.418-35.516-27.682-68.318-48.367-97.502-5.069-7.185-10.001-13.551-14.285-18.415l-4.25-4.847v-70.4c0-30.208 16.777-57.361 43.793-70.878l163.038-81.51c40.858-20.429 66.236-61.491 66.236-107.179v-51.934z" />
</font></defs></svg>